test_run_dir/GameLogicTester_should_pass/GameLogic.vcd
$date
2026-06-09T20:54+0000
$end
$version
0.2
$end
$comment

$end
$timescale 1ns  $end
$scope module GameLogic $end
 $var wire 11 & io_spriteXPosition_10 $end
 $var wire 11 ' io_spriteXPosition_13 $end
 $var wire 11 ( io_spriteXPosition_14 $end
 $var wire 11 ) io_spriteXPosition_11 $end
 $var wire 11 * io_spriteXPosition_12 $end
 $var wire 1 4 io_spriteVisible_11 $end
 $var wire 1 7 io_spriteVisible_10 $end
 $var wire 1 : io_spriteVisible_15 $end
 $var wire 1 ; io_spriteVisible_14 $end
 $var wire 1 < io_spriteVisible_13 $end
 $var wire 1 = io_spriteVisible_12 $end
 $var wire 1 C io_spriteFlipVertical_10 $end
 $var wire 1 E io_spriteFlipVertical_11 $end
 $var wire 1 G io_spriteFlipVertical_12 $end
 $var wire 10 I io_spriteYPosition_6 $end
 $var wire 10 J io_spriteYPosition_5 $end
 $var wire 10 K io_spriteYPosition_4 $end
 $var wire 10 M io_spriteYPosition_3 $end
 $var wire 10 N io_spriteYPosition_9 $end
 $var wire 10 O io_spriteYPosition_8 $end
 $var wire 10 P io_spriteYPosition_7 $end
 $var wire 10 S io_spriteYPosition_2 $end
 $var wire 10 T io_spriteYPosition_1 $end
 $var wire 10 U io_spriteYPosition_0 $end
 $var wire 1 f io_backBufferWriteEnable $end
 $var wire 2 w stateReg $end
 $var wire 11 ", io_spriteXPosition_15 $end
 $var wire 1 "; io_spriteFlipHorizontal_1 $end
 $var wire 1 "= io_spriteFlipHorizontal_0 $end
 $var wire 1 "? io_spriteFlipHorizontal_3 $end
 $var wire 1 "A io_spriteFlipHorizontal_2 $end
 $var wire 1 "C io_spriteFlipHorizontal_5 $end
 $var wire 1 "E io_spriteFlipHorizontal_4 $end
 $var wire 1 "F io_spriteFlipHorizontal_7 $end
 $var wire 1 "H io_spriteFlipHorizontal_6 $end
 $var wire 1 "I io_spriteFlipHorizontal_9 $end
 $var wire 1 "J io_spriteFlipHorizontal_8 $end
 $var wire 1 "N io_spriteFlipVertical_8 $end
 $var wire 1 "O io_spriteFlipVertical_9 $end
 $var wire 1 "P io_spriteFlipVertical_6 $end
 $var wire 1 "Q io_spriteFlipVertical_7 $end
 $var wire 1 "R io_spriteFlipVertical_0 $end
 $var wire 1 "S io_spriteFlipVertical_1 $end
 $var wire 1 "T io_spriteFlipVertical_4 $end
 $var wire 1 "V io_spriteFlipVertical_5 $end
 $var wire 1 "W io_spriteFlipVertical_2 $end
 $var wire 1 "X io_spriteFlipVertical_3 $end
 $var wire 10 "s io_viewBoxX $end
 $var wire 9 "u io_viewBoxY $end
 $var wire 1 "v io_newFrame $end
 $var wire 11 #& io_backBufferWriteAddress $end
 $var wire 1 #) io_btnD $end
 $var wire 1 #* io_btnC $end
 $var wire 1 #+ io_btnL $end
 $var wire 1 #, clock $end
 $var wire 1 #- io_btnR $end
 $var wire 1 #. io_btnU $end
 $var wire 1 #5 io_spriteFlipVertical_13 $end
 $var wire 10 #6 io_spriteYPosition_11 $end
 $var wire 1 #7 io_spriteFlipVertical_14 $end
 $var wire 10 #9 io_spriteYPosition_10 $end
 $var wire 1 #: io_spriteFlipVertical_15 $end
 $var wire 1 #; io_led_5 $end
 $var wire 10 #< io_spriteYPosition_15 $end
 $var wire 1 #= io_led_6 $end
 $var wire 10 #> io_spriteYPosition_14 $end
 $var wire 1 #? io_led_7 $end
 $var wire 10 #@ io_spriteYPosition_13 $end
 $var wire 1 #A io_sw_1 $end
 $var wire 10 #B io_spriteYPosition_12 $end
 $var wire 1 #C io_sw_0 $end
 $var wire 1 #D io_led_1 $end
 $var wire 1 #E io_led_2 $end
 $var wire 1 #F io_led_3 $end
 $var wire 1 #G io_led_4 $end
 $var wire 1 #H io_led_0 $end
 $var wire 1 #I io_sw_3 $end
 $var wire 1 #J io_sw_2 $end
 $var wire 1 #K io_sw_5 $end
 $var wire 1 #L io_sw_4 $end
 $var wire 1 #M io_sw_7 $end
 $var wire 1 #O io_sw_6 $end
 $var wire 11 #Q io_spriteXPosition_2 $end
 $var wire 11 #R io_spriteXPosition_3 $end
 $var wire 11 #S io_spriteXPosition_0 $end
 $var wire 11 #T io_spriteXPosition_1 $end
 $var wire 11 #U io_spriteXPosition_8 $end
 $var wire 11 #V io_spriteXPosition_9 $end
 $var wire 11 #W io_spriteXPosition_6 $end
 $var wire 11 #X io_spriteXPosition_7 $end
 $var wire 11 #Y io_spriteXPosition_4 $end
 $var wire 11 #Z io_spriteXPosition_5 $end
 $var wire 1 #` io_frameUpdateDone $end
 $var wire 1 #a io_frameUpdateDone_REG_1 $end
 $var wire 1 #h io_frameUpdateDone_REG $end
 $var wire 1 #i reset $end
 $var wire 1 #o io_spriteFlipHorizontal_15 $end
 $var wire 1 #p io_spriteFlipHorizontal_12 $end
 $var wire 1 #q io_spriteFlipHorizontal_11 $end
 $var wire 1 #r io_spriteFlipHorizontal_14 $end
 $var wire 1 #s io_spriteFlipHorizontal_13 $end
 $var wire 1 #u io_spriteFlipHorizontal_10 $end
 $var wire 5 #x io_backBufferWriteData $end
 $var wire 1 #{ io_spriteVisible_0 $end
 $var wire 1 #| car $end
 $var wire 1 #} io_spriteVisible_2 $end
 $var wire 1 #~ io_spriteVisible_1 $end
 $var wire 1 $! io_spriteVisible_4 $end
 $var wire 1 $" io_spriteVisible_3 $end
 $var wire 1 $# io_spriteVisible_6 $end
 $var wire 1 $$ io_spriteVisible_5 $end
 $var wire 1 $% io_spriteVisible_8 $end
 $var wire 1 $& io_spriteVisible_7 $end
 $var wire 1 $( io_spriteVisible_9 $end
  $scope module car $end
   $var wire 1 ! clock $end
   $var wire 1 H io_update $end
   $var wire 1 "0 reset $end
   $var wire 1 #% io_flipH $end
   $var wire 10 #' io_posY $end
   $var wire 11 #( io_posX $end
   $var wire 1 #N io_btnRight $end
   $var wire 1 #] angleControl $end
   $var wire 1 #^ io_btnDown $end
   $var wire 1 #_ speedControl $end
   $var wire 3 #b dirReg $end
   $var wire 1 #d io_btnUp $end
   $var wire 1 #l velControl $end
   $var wire 6 #n angle $end
   $var wire 1 #v io_btnLeft $end
   $var wire 10 #w yPosReg $end
   $var wire 1 #z flipSpriteH $end
   $var wire 11 $) xPosReg $end
   $var wire 9 $, speed $end
    $scope module velControl $end
     $var wire 9 " cosTable_50 $end
     $var wire 9 $ cosTable_49 $end
     $var wire 9 % cosTable_48 $end
     $var wire 9 + cosTable_41 $end
     $var wire 9 , cosTable_40 $end
     $var wire 9 - cosTable_43 $end
     $var wire 9 . cosTable_42 $end
     $var wire 9 / cosTable_45 $end
     $var wire 9 0 cosTable_44 $end
     $var wire 9 1 cosTable_47 $end
     $var wire 9 2 cosTable_46 $end
     $var wire 8 3 io_speed $end
     $var wire 9 5 cosTable_38 $end
     $var wire 11 6 io_oldXPos $end
     $var wire 9 8 cosTable_37 $end
     $var wire 9 9 cosTable_39 $end
     $var wire 9 > cosTable_30 $end
     $var wire 9 ? cosTable_32 $end
     $var wire 9 @ cosTable_31 $end
     $var wire 9 A cosTable_34 $end
     $var wire 9 B cosTable_33 $end
     $var wire 9 D cosTable_36 $end
     $var wire 9 F cosTable_35 $end
     $var wire 1 L io_frameUpdate $end
     $var wire 9 Q cosTable_63 $end
     $var wire 9 R cosTable_62 $end
     $var wire 9 V cosTable_61 $end
     $var wire 9 W cosTable_60 $end
     $var wire 9 X xAdded $end
     $var wire 9 Y cosTable_59 $end
     $var wire 9 Z cosTable_52 $end
     $var wire 9 [ cosTable_51 $end
     $var wire 9 \ cosTable_54 $end
     $var wire 9 ] cosTable_53 $end
     $var wire 9 ^ cosTable_56 $end
     $var wire 9 _ cosTable_55 $end
     $var wire 9 ` cosTable_58 $end
     $var wire 9 a cosTable_57 $end
     $var wire 9 b cosTable_2 $end
     $var wire 9 c cosTable_3 $end
     $var wire 9 d cosTable_0 $end
     $var wire 9 e cosTable_1 $end
     $var wire 10 g io_oldYPos $end
     $var wire 9 h cosTable_8 $end
     $var wire 9 i cosTable_9 $end
     $var wire 9 j cosTable_6 $end
     $var wire 9 k cosTable_7 $end
     $var wire 9 l cosTable_4 $end
     $var wire 9 m cosTable_5 $end
     $var wire 6 o io_ang $end
     $var wire 9 p sinTable_63 $end
     $var wire 9 q sinTable_61 $end
     $var wire 9 r sinTable_62 $end
     $var wire 9 t cosTable_27 $end
     $var wire 9 u cosTable_26 $end
     $var wire 9 v cosTable_29 $end
     $var wire 9 x cosTable_28 $end
     $var wire 9 z sinTable_60 $end
     $var wire 9 { cosTable_21 $end
     $var wire 9 | cosTable_20 $end
     $var wire 9 } cosTable_23 $end
     $var wire 9 ~ cosTable_22 $end
     $var wire 9 "! yAdded $end
     $var wire 9 "" cosTable_25 $end
     $var wire 9 "# cosTable_24 $end
     $var wire 9 "$ sinTable_56 $end
     $var wire 9 "% sinTable_57 $end
     $var wire 9 "& sinTable_54 $end
     $var wire 9 "' sinTable_55 $end
     $var wire 9 "( sinTable_52 $end
     $var wire 9 ") sinTable_53 $end
     $var wire 9 "* sinTable_50 $end
     $var wire 9 "+ sinTable_51 $end
     $var wire 9 "- sinTable_58 $end
     $var wire 9 ". sinTable_59 $end
     $var wire 9 "/ cosTable_16 $end
     $var wire 9 "1 cosTable_15 $end
     $var wire 9 "2 cosTable_18 $end
     $var wire 9 "3 cosTable_17 $end
     $var wire 9 "4 cosTable_19 $end
     $var wire 9 "5 cosTable_10 $end
     $var wire 9 "6 cosTable_12 $end
     $var wire 9 "7 cosTable_11 $end
     $var wire 9 "8 cosTable_14 $end
     $var wire 9 "9 cosTable_13 $end
     $var wire 9 ": sinTable_45 $end
     $var wire 9 "< sinTable_46 $end
     $var wire 9 "> sinTable_43 $end
     $var wire 9 "@ sinTable_44 $end
     $var wire 9 "B sinTable_41 $end
     $var wire 9 "D sinTable_42 $end
     $var wire 9 "G sinTable_40 $end
     $var wire 9 "K sinTable_49 $end
     $var wire 9 "L sinTable_47 $end
     $var wire 9 "M sinTable_48 $end
     $var wire 9 "Y sinTable_34 $end
     $var wire 9 "Z sinTable_35 $end
     $var wire 9 "[ sinTable_32 $end
     $var wire 9 "\ sinTable_33 $end
     $var wire 9 "] sinTable_30 $end
     $var wire 9 "^ sinTable_31 $end
     $var wire 9 "_ sinTable_38 $end
     $var wire 9 "` sinTable_39 $end
     $var wire 9 "a sinTable_36 $end
     $var wire 9 "b sinTable_37 $end
     $var wire 9 "c sinTable_23 $end
     $var wire 9 "d sinTable_24 $end
     $var wire 9 "e sinTable_21 $end
     $var wire 9 "f sinTable_22 $end
     $var wire 1 "h clock $end
     $var wire 9 "i sinTable_20 $end
     $var wire 9 "k sinTable_29 $end
     $var wire 9 "l sinTable_27 $end
     $var wire 9 "m sinTable_28 $end
     $var wire 9 "n sinTable_25 $end
     $var wire 9 "o sinTable_26 $end
     $var wire 9 "p sinTable_12 $end
     $var wire 9 "q sinTable_13 $end
     $var wire 9 "r sinTable_10 $end
     $var wire 9 "t sinTable_11 $end
     $var wire 9 "w sinTable_18 $end
     $var wire 9 "x sinTable_19 $end
     $var wire 9 "y sinTable_16 $end
     $var wire 9 "z sinTable_17 $end
     $var wire 9 "{ sinTable_14 $end
     $var wire 9 "| sinTable_15 $end
     $var wire 9 "} sinTable_9 $end
     $var wire 9 #! sinTable_5 $end
     $var wire 9 #" sinTable_6 $end
     $var wire 9 ## sinTable_7 $end
     $var wire 9 #$ sinTable_8 $end
     $var wire 9 #0 sinTable_1 $end
     $var wire 9 #1 sinTable_2 $end
     $var wire 9 #2 sinTable_3 $end
     $var wire 9 #3 sinTable_4 $end
     $var wire 9 #4 sinTable_0 $end
     $var wire 9 #\ xRemainder $end
     $var wire 9 #e yRemainder $end
     $var wire 11 #j highResSpeedY $end
     $var wire 11 #k highResSpeedX $end
     $var wire 10 #m io_newYPos $end
     $var wire 1 #y reset $end
     $var wire 11 $+ io_newXPos $end
    $upscope $end
    $scope module speedControl $end
     $var wire 1 # state $end
     $var wire 1 n clock $end
     $var wire 1 y reset $end
     $var wire 1 "g io_btnBckwd $end
     $var wire 9 "j io_speed $end
     $var wire 6 #8 clockDivCounter $end
     $var wire 1 #P io_btnFwd $end
     $var wire 9 $' speed $end
     $var wire 1 $* io_frameUpdate $end
    $upscope $end
    $scope module angleControl $end
     $var wire 1 s io_frameUpdate $end
     $var wire 1 "U io_btnRight $end
     $var wire 1 "~ state $end
     $var wire 1 #/ reset $end
     $var wire 1 #[ io_btnLeft $end
     $var wire 6 #c angle $end
     $var wire 6 #f io_angle $end
     $var wire 1 #g clock $end
     $var wire 6 #t clockDivReg $end
    $upscope $end
  $upscope $end
  $scope module car.angleControl $end
  $upscope $end
  $scope module car.speedControl $end
  $upscope $end
  $scope module car.velControl $end
  $upscope $end
$upscope $end
$enddefinitions $end
$dumpvars
04
07
0:
0;
0<
0=
0C
0E
0G
0H
0L
0f
0n
0s
0y
b000000 #n
b000000 #t
b000000 #f
b000000 #c
0"0
b000000 o
0";
0"=
b000000 #8
0"?
0"A
0"C
0#%
0"E
0"F
0"H
0#)
0"I
0#*
0"J
0#+
0#,
0#-
0#.
0"N
0#/
0"O
0"P
0"Q
0"R
0"S
0"T
0#5
0"U
0"V
0#7
0"W
0"X
0#:
0#;
0#=
0#?
0$!
0#A
0$"
0$#
0#C
0$$
0#D
0$%
0#E
0$&
0#F
0#G
0$(
0"g
0#H
0"h
0#I
0$*
0#J
0#K
0#L
0#M
0#N
0#O
0#P
b00 w
0"v
0#[
0#]
0#^
0"~
0#_
0#`
0#a
0#d
0#g
0#h
0#i
0#l
0#o
0#p
0#q
0#r
0#s
0#u
0#v
0#y
0#z
0#{
0#|
0#}
0#~
b000000000 #e
b000000000 "y
b000000000 %
b000000000 "x
b000000000 $
b000000000 "{
b000000000 #\
b000000000 "z
b000000000 "
b000000000 "}
b000000000 "|
b000000000 "q
b000000000 -
b000000000 "p
b000000000 ,
b000000000 +
b000000000 "r
b000000000 "u
b000000000 1
b000000000 "t
b000000000 0
b000000000 "w
b000000000 /
b000000000 .
b000000000 "i
b000000000 5
b000000000 "k
b000000000 "j
b000000000 $,
b000000000 2
b000000000 "m
b000000000 9
b000000000 "l
b000000000 8
b000000000 "o
b000000000 "n
b000000000 "a
b000000000 "`
b000000000 "c
b0000000000 #'
b000000000 "b
b000000000 "e
b000000000 $'
b000000000 A
b000000000 "d
b000000000 @
b000000000 ?
b000000000 "f
b000000000 >
b0000000000 #>
b000000000 "Y
b000000000 D
b0000000000 #@
b000000000 "[
b000000000 "Z
b000000000 B
b0000000000 #B
b000000000 "]
b000000000 "\
b000000000 "_
b000000000 "^
b000000000 F
b0000000000 #6
b000000000 #2
b000000000 #1
b000000000 #4
b000000000 #3
b000000000 Q
b0000000000 #9
b0000000000 #<
b00000 #x
b000000000 "K
b000000000 R
b000000000 "M
b000000000 Y
b000000000 "L
b000000000 X
b000000000 #0
b000000000 W
b000000000 V
b000000000 #"
b000000000 ]
b000000000 "@
b000000000 #!
b000000000 \
b000000000 #$
b000000000 [
b000000000 "B
b000000000 ##
b000000000 Z
b000000000 a
b000000000 "D
b000000000 `
b000000000 "G
b000000000 _
b000000000 ^
b000000000 "9
b000000000 e
b000000000 "8
b000000000 d
b00000000000 *
b000000000 c
b000000000 ":
b0000000000 g
b000000000 b
b000000000 i
b000000000 "<
b000000000 h
b000000000 ">
b000000000 "1
b000000000 m
b000000000 l
b000000000 "3
b000000000 k
b000000000 "2
b000000000 j
b00000000000 (
b000000000 "5
b000000000 q
b00000000000 )
b000000000 "4
b000000000 p
b00000000000 &
b000000000 "7
b00000000000 '
b000000000 "6
b000000000 ")
b000000000 u
b000000000 "(
b000000000 t
b000000000 "+
b000000000 "*
b000000000 r
b000000000 "-
b000000000 x
b000000000 "/
b000000000 ".
b000000000 v
b000000000 "!
b0000000000 P
b000000000 }
b000000000 |
b000000000 "#
b0000000000 N
b000000000 {
b000000000 ""
b0000000000 O
b000000000 z
b000000000 "%
b0000000000 T
b000000000 "$
b0000000000 U
b00000000000 6
b000000000 "'
b000000000 "&
b0000000000 S
b000000000 ~
b0000000000 I
b0000000000 M
b0000000000 J
b0000000000 K
b00000000000 #k
b00000000000 #j
b00000000000 #X
b00000000000 #W
b00000000000 #V
b00000000000 #U
b00000000000 #T
b00000000000 #S
b00000000000 #R
b00000000000 #Q
b00000000000 #Z
b00000000000 #Y
b00000000000 $)
b00000000000 $+
b000 #b
b00000000000 #(
b00000000000 #&
b0000000000 "s
b00000000 3
b0000000000 #m
b00000000000 ",
0!
0#
b0000000000 #w
$end
#0
1#i
1#y
1#{
1y
1#/
1"0
#1
1!
b000001100 "
b000000110 $
b111010111 +
b111010011 ,
b111100010 -
b111011100 .
b111101101 /
b111101000 0
b111111010 1
b111110100 2
b111001011 5
b00000111100 6
b111001000 8
b111001111 9
b111000001 >
b111000000 ?
b111000000 @
b111001111 ""
b111000001 A
b111010011 "#
b111000000 B
b111010011 "$
b111010111 "%
b111000101 D
b111001011 "&
b111001111 "'
b111000011 F
b111000101 "(
b111001000 ")
b111000001 "*
b111000011 "+
b111011100 "-
b111100010 ".
b000000110 "1
b111110100 "2
b001000000 Q
b111111010 "3
b000111111 R
b111101101 "4
b000100100 "5
b000011000 "6
b0010101010 U
b000011110 "7
b000111101 V
b000001100 "8
b000111011 W
b000010011 "9
b111000011 ":
b000111000 Y
b000011000 Z
b111000001 "<
b000010011 [
b000100100 \
b111001000 ">
b000011110 ]
b000101101 ^
b111000101 "@
b000011110 #!
b000101001 _
b000100100 #"
b000110101 `
b111001111 "B
b000101001 ##
b000110001 a
b000101101 #$
b000111111 b
b111001011 "D
b000111101 c
b001000000 d
b0010101010 #'
b001000000 e
b00000111100 #(
b111010011 "G
b0010101010 g
b000101101 h
b000101001 i
1#,
b111000000 "K
b000110101 j
b111000000 "L
b000110001 k
b111000000 "M
b000111011 l
b000111000 m
b000000110 #0
1n
b000001100 #1
b000010011 #2
b111111010 p
b000011000 #3
b111101101 q
b111110100 r
b111001000 t
b111001011 u
b111000011 v
b111110100 "Y
b111000101 x
b111101101 "Z
b111101000 z
b111111010 "\
b111100010 {
b000001100 "]
b111101000 |
b000000110 "^
b111010111 }
b111011100 "_
b111011100 ~
b111010111 "`
b111101000 "a
b111100010 "b
b000110001 "c
b000101101 "d
b000111000 "e
b000110101 "f
b00000111100 $)
1"h
b000111011 "i
b00000111100 $+
b000010011 "k
b000011110 "l
b000011000 "m
b000101001 "n
b000100100 "o
b000111011 "p
b000111101 "q
b00000111100 #S
b000110101 "r
b000111000 "t
b000111111 "w
b000111101 "x
b001000000 "y
b001000000 "z
b000111111 "{
b001000000 "|
b000110001 "}
1#g
b0010101010 #m
b0010101010 #w
#6
0!
0#g
0"h
0#i
0#y
0y
0#,
0#/
0n
0"0
#11
1!
1#g
1"h
1#,
1n
#16
0!
1"v
0#g
0"h
0#,
0n
#21
1!
1s
1#g
1#h
1"h
1$*
b01 w
1H
1#,
1L
1n
#26
0!
0"v
0#g
0"h
0#,
0n
#31
1!
1#g
0#h
1"h
0$*
0H
1#,
0L
1n
b000001 #t
0s
b000001 #8
b10 w
1#`
1#a
#36
0!
0#g
0"h
0#,
0n
#41
1!
1#g
1"h
b00 w
1#,
0#`
1n
0#a
