test_run_dir/GameLogicTester_should_pass/GameLogic.vcd
$date
2026-06-09T09:50+0000
$end
$version
0.2
$end
$comment

$end
$timescale 1ns  $end
$scope module GameLogic $end
 $var wire 11 # io_spriteXPosition_10 $end
 $var wire 11 $ io_spriteXPosition_13 $end
 $var wire 11 % io_spriteXPosition_14 $end
 $var wire 11 & io_spriteXPosition_11 $end
 $var wire 11 ' io_spriteXPosition_12 $end
 $var wire 1 ( io_spriteVisible_11 $end
 $var wire 11 ) io_spriteXPosition_2 $end
 $var wire 1 * io_spriteVisible_10 $end
 $var wire 11 + io_spriteXPosition_3 $end
 $var wire 11 , io_spriteXPosition_0 $end
 $var wire 11 - io_spriteXPosition_1 $end
 $var wire 1 . io_spriteVisible_15 $end
 $var wire 1 / io_spriteVisible_14 $end
 $var wire 1 0 io_spriteVisible_13 $end
 $var wire 1 1 io_spriteVisible_12 $end
 $var wire 11 2 io_spriteXPosition_8 $end
 $var wire 11 3 io_spriteXPosition_9 $end
 $var wire 11 4 io_spriteXPosition_6 $end
 $var wire 11 5 io_spriteXPosition_7 $end
 $var wire 1 6 io_spriteFlipVertical_10 $end
 $var wire 11 7 io_spriteXPosition_4 $end
 $var wire 1 8 io_spriteFlipVertical_11 $end
 $var wire 11 9 io_spriteXPosition_5 $end
 $var wire 1 : io_spriteFlipVertical_12 $end
 $var wire 10 < io_spriteYPosition_6 $end
 $var wire 10 = io_spriteYPosition_5 $end
 $var wire 10 > io_spriteYPosition_4 $end
 $var wire 10 ? io_spriteYPosition_3 $end
 $var wire 10 @ io_spriteYPosition_9 $end
 $var wire 10 A io_spriteYPosition_8 $end
 $var wire 10 B io_spriteYPosition_7 $end
 $var wire 10 C io_spriteYPosition_2 $end
 $var wire 10 D io_spriteYPosition_1 $end
 $var wire 10 E io_spriteYPosition_0 $end
 $var wire 1 H io_frameUpdateDone $end
 $var wire 1 I io_frameUpdateDone_REG_1 $end
 $var wire 1 K io_backBufferWriteEnable $end
 $var wire 2 N stateReg $end
 $var wire 11 P io_spriteXPosition_15 $end
 $var wire 1 R io_spriteFlipHorizontal_1 $end
 $var wire 1 S io_spriteFlipHorizontal_0 $end
 $var wire 1 T io_spriteFlipHorizontal_3 $end
 $var wire 1 U io_spriteFlipHorizontal_2 $end
 $var wire 1 V io_spriteFlipHorizontal_5 $end
 $var wire 1 W io_spriteFlipHorizontal_4 $end
 $var wire 1 X io_spriteFlipHorizontal_7 $end
 $var wire 1 Y io_spriteFlipHorizontal_6 $end
 $var wire 1 Z io_spriteFlipHorizontal_9 $end
 $var wire 1 [ io_spriteFlipHorizontal_8 $end
 $var wire 1 \ io_spriteFlipVertical_8 $end
 $var wire 1 ] io_spriteFlipVertical_9 $end
 $var wire 1 ^ io_spriteFlipVertical_6 $end
 $var wire 1 _ io_spriteFlipVertical_7 $end
 $var wire 1 ` io_spriteFlipVertical_0 $end
 $var wire 1 a io_spriteFlipVertical_1 $end
 $var wire 1 b io_spriteFlipVertical_4 $end
 $var wire 1 c io_spriteFlipVertical_5 $end
 $var wire 1 d io_spriteFlipVertical_2 $end
 $var wire 1 e io_spriteFlipVertical_3 $end
 $var wire 1 f io_frameUpdateDone_REG $end
 $var wire 1 h reset $end
 $var wire 1 i io_spriteFlipHorizontal_15 $end
 $var wire 10 j io_viewBoxX $end
 $var wire 1 k io_spriteFlipHorizontal_12 $end
 $var wire 1 l io_spriteFlipHorizontal_11 $end
 $var wire 9 m io_viewBoxY $end
 $var wire 1 n io_spriteFlipHorizontal_14 $end
 $var wire 1 o io_spriteFlipHorizontal_13 $end
 $var wire 1 p io_newFrame $end
 $var wire 1 q io_spriteFlipHorizontal_10 $end
 $var wire 11 u io_backBufferWriteAddress $end
 $var wire 5 x io_backBufferWriteData $end
 $var wire 1 z io_btnD $end
 $var wire 1 { io_btnC $end
 $var wire 1 | io_btnL $end
 $var wire 1 } clock $end
 $var wire 1 ~ io_btnR $end
 $var wire 1 "! io_btnU $end
 $var wire 1 "" io_spriteFlipVertical_13 $end
 $var wire 10 "# io_spriteYPosition_11 $end
 $var wire 1 "$ io_spriteFlipVertical_14 $end
 $var wire 10 "% io_spriteYPosition_10 $end
 $var wire 1 "& io_spriteFlipVertical_15 $end
 $var wire 1 "' io_led_5 $end
 $var wire 10 "( io_spriteYPosition_15 $end
 $var wire 1 ") io_led_6 $end
 $var wire 10 "* io_spriteYPosition_14 $end
 $var wire 1 "+ io_led_7 $end
 $var wire 10 ", io_spriteYPosition_13 $end
 $var wire 1 "- io_sw_1 $end
 $var wire 10 ". io_spriteYPosition_12 $end
 $var wire 1 "/ io_sw_0 $end
 $var wire 1 "0 io_led_1 $end
 $var wire 1 "2 io_led_2 $end
 $var wire 1 "3 io_led_3 $end
 $var wire 1 "4 io_led_4 $end
 $var wire 1 "5 io_led_0 $end
 $var wire 1 "6 io_spriteVisible_0 $end
 $var wire 1 "7 car $end
 $var wire 1 "8 io_spriteVisible_2 $end
 $var wire 1 "9 io_spriteVisible_1 $end
 $var wire 1 ": io_spriteVisible_4 $end
 $var wire 1 "; io_sw_3 $end
 $var wire 1 "< io_spriteVisible_3 $end
 $var wire 1 "= io_sw_2 $end
 $var wire 1 "> io_spriteVisible_6 $end
 $var wire 1 "? io_sw_5 $end
 $var wire 1 "@ io_spriteVisible_5 $end
 $var wire 1 "A io_sw_4 $end
 $var wire 1 "B io_spriteVisible_8 $end
 $var wire 1 "C io_sw_7 $end
 $var wire 1 "D io_spriteVisible_7 $end
 $var wire 1 "F io_sw_6 $end
 $var wire 1 "G io_spriteVisible_9 $end
  $scope module car $end
   $var wire 1 ! clock $end
   $var wire 4 " xAbsFramesPerPixel $end
   $var wire 1 ; io_update $end
   $var wire 1 F io_btnDown $end
   $var wire 4 G xSpeedCounter $end
   $var wire 4 J ySpeedCounter $end
   $var wire 4 L yAbsFramesPerPixel $end
   $var wire 3 M dirReg $end
   $var wire 1 O io_btnUp $end
   $var wire 1 Q reset $end
   $var wire 5 g xFramesPerPixel $end
   $var wire 1 r io_btnLeft $end
   $var wire 10 s yPosReg $end
   $var wire 1 t io_flipH $end
   $var wire 10 v io_posY $end
   $var wire 5 w yFramesPerPixel $end
   $var wire 11 y io_posX $end
   $var wire 1 "1 flipSpriteH $end
   $var wire 1 "E io_btnRight $end
   $var wire 11 "H xPosReg $end
  $upscope $end
$upscope $end
$enddefinitions $end
$dumpvars
00
b0000000000 ",
01
b0000000000 ".
06
b0000000000 "%
08
0:
0;
b0000000000 "(
b0000000000 "*
0F
0H
0I
0K
0O
0Q
b0000 "
0R
0S
0T
0U
0V
0W
0X
b00000000000 u
0Y
0Z
0[
0\
b00000000000 y
0]
0^
0_
0`
0a
0b
0c
0d
0e
0f
0h
0i
0k
0l
0n
0o
0p
0q
b0000000000 v
0r
0t
0z
0{
0|
0}
0~
b0000000000 s
b00000000000 ,
b00000000000 -
b00000000000 +
b0000000000 j
b00000000000 $
b000000000 m
b00000000000 %
b00000000000 #
b00000000000 )
b00000000000 &
b00000000000 '
b00000000000 4
b00000000000 5
b00000000000 2
b00000000000 3
b00000000000 9
b00000000000 7
0"!
0""
0"$
b00000000000 P
0"&
0"'
b0000000000 "#
0")
b0000000000 @
b0000000000 A
0"+
b0000000000 >
b0000000000 ?
0"-
b0000000000 D
b0000000000 E
0"/
b0000000000 B
0"0
b0000000000 C
0"1
0"2
0"3
0"4
0"5
b0000000000 <
0"6
b0000000000 =
0"7
0"8
0"9
0":
0";
0"<
0"=
0">
0"?
0"@
0"A
0"B
0"C
0"D
0"E
0"F
0"G
b0000 L
b0000 J
b000 M
b0000 G
b00000000000 "H
b00000 g
b00000 w
b00000 x
b00 N
0!
0(
0*
0.
0/
$end
#0
1Q
1"6
1h
#1
1!
b0010101010 s
b0010101010 E
b0010101010 v
b00000111100 "H
b01010 g
b01010 w
b00000111100 y
b00000111100 ,
1}
#6
0!
0Q
0h
0}
#11
1!
1}
#16
1p
0!
0}
#21
1!
1f
1;
1}
b01 N
#26
0p
0!
0}
#31
1!
0f
1H
1I
0;
1}
b10 N
#36
0!
0}
#41
1!
0H
0I
1}
b00 N
